<svg xmlns="http://www.w3.org/2000/svg" viewBox="0 0 90 120">
  <defs>
    <style>
      .cls-1 {
        fill: #fff;
        stroke: #ccc;
      }

      .cls-2 {
        fill: #c2c2c2;
      }

      .cls-3 {
        fill: #e8e8e8;
      }

      .cls-4 {
        stroke: none;
      }

      .cls-5 {
        fill: none;
      }
    </style>
  </defs>
  <g id="Group_8145" data-name="Group 8145" transform="translate(-434 -140)">
    <g id="Rectangle_3461" data-name="Rectangle 3461" class="cls-1" transform="translate(434 140)">
      <rect class="cls-4" width="90" height="120" rx="5"/>
      <rect class="cls-5" x="0.5" y="0.5" width="89" height="119" rx="4.5"/>
    </g>
    <path id="Rectangle_3462" data-name="Rectangle 3462" class="cls-2" d="M5,0H85a5,5,0,0,1,5,5V35.667a0,0,0,0,1,0,0H0a0,0,0,0,1,0,0V5A5,5,0,0,1,5,0Z" transform="translate(434 140)"/>
    <rect id="Rectangle_3464" data-name="Rectangle 3464" class="cls-2" width="30" height="20" rx="1" transform="translate(444 198)"/>
    <rect id="Rectangle_3465" data-name="Rectangle 3465" class="cls-2" width="30" height="20" rx="1" transform="translate(484 198)"/>
    <rect id="Rectangle_3455" data-name="Rectangle 3455" class="cls-3" width="70" height="4" rx="2" transform="translate(444 181)"/>
    <rect id="Rectangle_3456" data-name="Rectangle 3456" class="cls-3" width="70" height="4" rx="2" transform="translate(444 189)"/>
    <rect id="Rectangle_3469" data-name="Rectangle 3469" class="cls-2" width="15" height="4" rx="2" transform="translate(472 245)"/>
    <rect id="Rectangle_3463" data-name="Rectangle 3463" class="cls-3" width="23" height="4" rx="2" transform="translate(444 223)"/>
    <rect id="Rectangle_3468" data-name="Rectangle 3468" class="cls-3" width="23" height="4" rx="2" transform="translate(484 223)"/>
    <rect id="Rectangle_3466" data-name="Rectangle 3466" class="cls-3" width="15" height="4" rx="2" transform="translate(444 230)"/>
    <rect id="Rectangle_3467" data-name="Rectangle 3467" class="cls-3" width="15" height="4" rx="2" transform="translate(484 230)"/>
  </g>
</svg>
